#            AutoSol.mad
#            script to run MAD datasets with AutoSol
#                   Version 1.24 of 6-June-2006
#            run with:  
#            phenix.runWizard AutoSol AutoSol.mad [restart]
#            if you specify restart it will forget everything,
#               otherwise it will continue on from where it is now.
expt_type       sad                        # MAD experiment
input_file_list lam2.sca 
input_seq_file seq.dat
thoroughness quick
ncs_copies 1
number_of_builds 2

# you can put any other parameters here

#  AutoSol will run automatically from here on with no more inputs
